Media Sentiment Data from the BER API • sententia
…
Sentiment Index

Get media sentiment index values for specified media source, model, topic, dictionary, frequency, and aggregation method combination.

sent_index(
   source = "businessday",
   model = "model_2021-05-15",
   topic = "global",
   freq = "day",
   dict = "loughran",
   aggr = "sent_logit"
   )

# # A tibble: 224 × 9
#    source      published_date dict_name type     aggr_type  mean_sentiment relative absolute sent_log
#    <chr>       <chr>          <chr>     <chr>    <chr>               <dbl>    <dbl>    <dbl>    <dbl>
#  1 businessday 2003-01-01     loughran  polarity sent_logit         -1.80    -1       -1        0    
#  2 businessday 2003-02-01     loughran  polarity sent_logit         -0.784   -0.639   -0.576   -0.645
#  3 businessday 2003-03-01     loughran  polarity sent_logit         -0.768   -0.539   -0.505   -0.523
#  4 businessday 2003-04-01     loughran  polarity sent_logit         -0.604   -0.423   -0.420   -0.388
#  5 businessday 2003-05-01     loughran  polarity sent_logit         -0.845   -0.582   -0.542   -0.567
#  6 businessday 2003-06-01     loughran  polarity sent_logit         -0.594   -0.426   -0.390   -0.394
#  7 businessday 2003-07-01     loughran  polarity sent_logit         -0.672   -0.462   -0.439   -0.433
#  8 businessday 2003-08-01     loughran  polarity sent_logit         -0.502   -0.356   -0.337   -0.323
#  9 businessday 2003-09-01     loughran  polarity sent_logit         -0.637   -0.478   -0.435   -0.452
# 10 businessday 2003-10-01     loughran  polarity sent_logit         -0.604   -0.412   -0.384   -0.381
# # … with 214 more rows

Count of articles that make up sentiment

Get a count of the number of articles for a specified media source, model, topic, and frequency of aggregation.

sent_counts(
   source = "all",
   model = "model_2021-05-15",
   topic = "global",
   freq = "week"
   )

# # A tibble: 972 × 2
#    published_date article_count
#    <chr>                  <int>
#  1 2003-01-13                 1
#  2 2003-01-20                 1
#  3 2003-01-27                 1
#  4 2003-02-03                 3
#  5 2003-02-10                 7
#  6 2003-02-17                26
#  7 2003-02-24                56
#  8 2003-03-03                90
#  9 2003-03-10               171
# 10 2003-03-17               152
# # … with 962 more rows

Date polarity

Get a count of the number of positive and negative articles for a specified model, topic, dictionary, aggregation method, and frequency.

sent_date_polarity(
   source = "all",
   model = "model_2021-05-15",
   topic = "global",
   freq = "week",
   dict = "loughran",
   aggr = "sent_logit"
   )

# # A tibble: 972 × 7
#    source published_date dict_name type     aggr_type  positive_words negative_words
#    <chr>  <chr>          <chr>     <chr>    <chr>               <int>          <int>
#  1 all    2003-01-13     loughran  polarity sent_logit              0              1
#  2 all    2003-01-20     loughran  polarity sent_logit              0              1
#  3 all    2003-01-27     loughran  polarity sent_logit              0              1
#  4 all    2003-02-03     loughran  polarity sent_logit              0              3
#  5 all    2003-02-10     loughran  polarity sent_logit              0              7
#  6 all    2003-02-17     loughran  polarity sent_logit              1             25
#  7 all    2003-02-24     loughran  polarity sent_logit             14             33
#  8 all    2003-03-03     loughran  polarity sent_logit             20             67
#  9 all    2003-03-10     loughran  polarity sent_logit             31            130
# 10 all    2003-03-17     loughran  polarity sent_logit             39            105
# # … with 962 more rows

Word polarity

Get the top 50 most frequently occurring positive and negative words for a specified model, topic, dictionary, aggregation method, and frequency. The timeframe over which these words are selected depends on the specified frequency (day = 30 days, week = 3 months, month = 6 months).

sent_word_polarity(
   source = "all",
   model = "model_2021-05-15",
   topic = "economy",
   freq = "day",
   dict = "loughran"
   )

# # A tibble: 100 × 8
#    source topic_econ tokens       dict_name sentiment mentions word_rank date_range             
#    <chr>  <chr>      <chr>        <chr>     <chr>        <int>     <int> <chr>                  
#  1 all    economy    against      loughran  negative      1681         1 2021-02-28 - 2021-08-29
#  2 all    economy    concerns     loughran  negative       856         2 2021-02-28 - 2021-08-29
#  3 all    economy    lost         loughran  negative       797         3 2021-02-28 - 2021-08-29
#  4 all    economy    crisis       loughran  negative       754         4 2021-02-28 - 2021-08-29
#  5 all    economy    losses       loughran  negative       608         5 2021-02-28 - 2021-08-29
#  6 all    economy    unrest       loughran  negative       586         6 2021-02-28 - 2021-08-29
#  7 all    economy    unemployment loughran  negative       562         7 2021-02-28 - 2021-08-29
#  8 all    economy    challenges   loughran  negative       554         8 2021-02-28 - 2021-08-29
#  9 all    economy    late         loughran  negative       534         9 2021-02-28 - 2021-08-29
# 10 all    economy    violence     loughran  negative       530        10 2021-02-28 - 2021-08-29
# # … with 90 more rows
…
